fetch
…
When the catalog item is printed, it shows a data dictionary for the
specified dataset. Column names and data types are displayed, along with
some other useful attributes of your data.

Once the catalog is created, you are ready to fetch data from the
catalog:

# Fetch data from a catalog
dt <- fetch(ct$ADEX)

# View data
dt
# A tibble: 348 × 17
#    STUDYID USUBJID    SUBJID SITEID TRTP  TRTPN TRTA  TRTAN RANDFL SAFFL MITTFL PPROTFL
#    <chr>   <chr>      <chr>  <chr>  <chr> <dbl> <chr> <dbl> <chr>  <chr> <chr>  <chr>  
#  1 ABC     ABC-01-049 049    01     ARM D     4 ARM D     4 Y      Y     Y      Y      
#  2 ABC     ABC-01-049 049    01     ARM D     4 ARM D     4 Y      Y     Y      Y      
#  3 ABC     ABC-01-049 049    01     ARM D     4 ARM D     4 Y      Y     Y      Y      
#  4 ABC     ABC-01-049 049    01     ARM D     4 ARM D     4 Y      Y     Y      Y      
#  5 ABC     ABC-01-050 050    01     ARM B     2 ARM B     2 Y      Y     Y      Y      
#  6 ABC     ABC-01-050 050    01     ARM B     2 ARM B     2 Y      Y     Y      Y      
#  7 ABC     ABC-01-050 050    01     ARM B     2 ARM B     2 Y      Y     Y      Y      
#  8 ABC     ABC-01-050 050    01     ARM B     2 ARM B     2 Y      Y     Y      Y      
#  9 ABC     ABC-01-051 051    01     ARM A     1 ARM A     1 Y      Y     Y      Y      
# 10 ABC     ABC-01-051 051    01     ARM A     1 ARM A     1 Y      Y     Y      Y      
#  338 more rows
#  5 more variables: PARAM <chr>, PARAMCD <chr>, PARAMN <dbl>, AVAL <dbl>,
#   AVALCAT1 <chr>
#  Use `print(n = ...)` to see more rows
…
# Get sample data directory
pkg <- system.file("extdata", package = "fetch")
 
# Create catalog
ct <- catalog(pkg, engines$csv)

# Subset data for a specific subject
dt <- fetch(ct$ADVS, where = expression(SUBJID == '049'))

# View data subset
dt
# A tibble: 44 × 37
#    STUDYID USUBJID    SUBJID SITEID SRCDOM SRCVAR   SRCSEQ TRTP  TRTPN TRTA  TRTAN RANDFL
#    <chr>   <chr>      <chr>  <chr>  <chr>  <chr>     <dbl> <chr> <dbl> <chr> <dbl> <chr> 
#  1 ABC     ABC-01-049 049    01     VS     VSSTRESN      9 ARM D     4 ARM D     4 Y     
#  2 ABC     ABC-01-049 049    01     VS     VSSTRESN     41 ARM D     4 ARM D     4 Y     
#  3 ABC     ABC-01-049 049    01     NA     NA           NA ARM D     4 ARM D     4 Y     
#  4 ABC     ABC-01-049 049    01     VS     VSSTRESN     34 ARM D     4 ARM D     4 Y     
#  5 ABC     ABC-01-049 049    01     VS     VSSTRESN     35 ARM D     4 ARM D     4 Y     
#  6 ABC     ABC-01-049 049    01     VS     VSSTRESN     36 ARM D     4 ARM D     4 Y     
#  7 ABC     ABC-01-049 049    01     VS     VSSTRESN     37 ARM D     4 ARM D     4 Y     
#  8 ABC     ABC-01-049 049    01     VS     VSSTRESN     38 ARM D     4 ARM D     4 Y     
#  9 ABC     ABC-01-049 049    01     VS     VSSTRESN     39 ARM D     4 ARM D     4 Y     
# 10 ABC     ABC-01-049 049    01     VS     VSSTRESN     40 ARM D     4 ARM D     4 Y     
#  34 more rows
#  25 more variables: SAFFL <chr>, MITTFL <chr>, PPROTFL <chr>, TRTSDT <chr>,
#   TRTEDT <chr>, ADT <chr>, ADY <dbl>, ADTF <lgl>, AVISIT <chr>, AVISITN <dbl>,
#   PARAM <chr>, PARAMCD <chr>, PARAMN <dbl>, PARAMTYP <chr>, AVAL <dbl>, BASE <dbl>,
#   CHG <dbl>, AWRANGE <chr>, AWTARGET <dbl>, AWTDIFF <dbl>, AWLO <dbl>, AWHI <dbl>,
#   AWU <chr>, ABLFL <chr>, ANL01FL <chr>
#  Use `print(n = ...)` to see more rows
…
Notice that a where expression has been added to each data item in
the catalog, and the row counts for each item have been reduced. Now
let’s fetch some data from this catalog:

# Subset data for a specific subject
dt1 <- fetch(ct2$ADVS)

# View results of ADVS fetch
dt1
# A tibble: 44 × 37
#    STUDYID USUBJID    SUBJID SITEID SRCDOM SRCVAR   SRCSEQ TRTP  TRTPN TRTA  TRTAN RANDFL SAFFL
#    <chr>   <chr>      <chr>  <chr>  <chr>  <chr>     <dbl> <chr> <dbl> <chr> <dbl> <chr>  <chr>
#  1 ABC     ABC-01-049 049    01     VS     VSSTRESN      9 ARM D     4 ARM D     4 Y      Y    
#  2 ABC     ABC-01-049 049    01     VS     VSSTRESN     41 ARM D     4 ARM D     4 Y      Y    
#  3 ABC     ABC-01-049 049    01     NA     NA           NA ARM D     4 ARM D     4 Y      Y    
#  4 ABC     ABC-01-049 049    01     VS     VSSTRESN     34 ARM D     4 ARM D     4 Y      Y    
#  5 ABC     ABC-01-049 049    01     VS     VSSTRESN     35 ARM D     4 ARM D     4 Y      Y    
#  6 ABC     ABC-01-049 049    01     VS     VSSTRESN     36 ARM D     4 ARM D     4 Y      Y    
#  7 ABC     ABC-01-049 049    01     VS     VSSTRESN     37 ARM D     4 ARM D     4 Y      Y    
#  8 ABC     ABC-01-049 049    01     VS     VSSTRESN     38 ARM D     4 ARM D     4 Y      Y    
#  9 ABC     ABC-01-049 049    01     VS     VSSTRESN     39 ARM D     4 ARM D     4 Y      Y    
# 10 ABC     ABC-01-049 049    01     VS     VSSTRESN     40 ARM D     4 ARM D     4 Y      Y    
#  34 more rows
#  24 more variables: MITTFL <chr>, PPROTFL <chr>, TRTSDT <chr>, TRTEDT <chr>, ADT <chr>,
#   ADY <dbl>, ADTF <lgl>, AVISIT <chr>, AVISITN <dbl>, PARAM <chr>, PARAMCD <chr>,
#   PARAMN <dbl>, PARAMTYP <chr>, AVAL <dbl>, BASE <dbl>, CHG <dbl>, AWRANGE <chr>,
#   AWTARGET <dbl>, AWTDIFF <dbl>, AWLO <dbl>, AWHI <dbl>, AWU <chr>, ABLFL <chr>,
#   ANL01FL <chr>
#  Use `print(n = ...)` to see more rows
…
